%YAML 1.1
%TAG !u! tag:unity3d.com,2011:
--- !u!114 &4699529816479037219
MonoBehaviour:
  m_ObjectHideFlags: 0
  m_CorrespondingSourceObject: {fileID: 0}
  m_PrefabInstance: {fileID: 0}
  m_PrefabAsset: {fileID: 0}
  m_GameObject: {fileID: 2920421053238916698}
  m_Enabled: 1
  m_EditorHideFlags: 0
  m_Script: {fileID: 11500000, guid: 00f6c0d7b5a00aa4a8d38a09a0480032, type: 3}
  m_Name: 
  m_EditorClassIdentifier: 
  skeletonAction:
    actionPath: 
    needsReinit: 1
  inputSource: 2
  rangeOfMotion: 1
  skeletonRoot: {fileID: 2921379330243903032}
  origin: {fileID: 0}
  updatePose: 0
  onlySetRotations: 0
  skeletonBlend: 1
  onBoneTransformsUpdated:
    m_PersistentCalls:
      m_Calls: []
  onTransformUpdated:
    m_PersistentCalls:
      m_Calls: []
  onTransformChanged:
    m_PersistentCalls:
      m_Calls: []
  onConnectedChanged:
    m_PersistentCalls:
      m_Calls: []
  onTrackingChanged:
    m_PersistentCalls:
      m_Calls: []
  mirroring: 0
  fallbackPoser: {fileID: 8598127022235423022}
  fallbackCurlAction:
    actionPath: /actions/default/in/Squeeze
    needsReinit: 0
--- !u!114 &8598127022235423022
MonoBehaviour:
  m_ObjectHideFlags: 0
  m_CorrespondingSourceObject: {fileID: 0}
  m_PrefabInstance: {fileID: 0}
  m_PrefabAsset: {fileID: 0}
  m_GameObject: {fileID: 2920421054450004872}
  m_Enabled: 1
  m_EditorHideFlags: 0
  m_Script: {fileID: 11500000, guid: e7418c7dd8f977d4e969202d3fa7e926, type: 3}
  m_Name: 
  m_EditorClassIdentifier: 
  poseEditorExpanded: 1
  blendEditorExpanded: 1
  poseNames:
  - fallback_relaxed (MAIN)
  - fallback_point
  - fallback_fist
  overridePreviewLeftHandPrefab: {fileID: 1000013348574242, guid: 638779290bce1af49b356f33dcc6fccf,
    type: 3}
  overridePreviewRightHandPrefab: {fileID: 1000010304998954, guid: 6def53d002137b747aec0b29551e0e25,
    type: 3}
  skeletonMainPose: {fileID: 11400000, guid: 213b7d69786635c498d1287c5505990e, type: 2}
  skeletonAdditionalPoses:
  - {fileID: 11400000, guid: 416ca9f76f309e5478daf527e55b0c80, type: 2}
  - {fileID: 11400000, guid: 45a635d0e1a43f14da0eb032aeb8dbcd, type: 2}
  showLeftPreview: 0
  showRightPreview: 0
  previewLeftInstance: {fileID: 0}
  previewRightInstance: {fileID: 0}
  previewPoseSelection: 0
  blendingBehaviours:
  - name: point
    enabled: 1
    influence: 1
    pose: 1
    value: 0
    action_single:
      actionPath: 
      needsReinit: 0
    action_bool:
      actionPath: /actions/default/in/GrabGrip
      needsReinit: 0
    smoothingSpeed: 16
    type: 2
    useMask: 0
    mask:
      palm: 1
      thumb: 1
      index: 1
      middle: 1
      ring: 1
      pinky: 1
      values: 010101010101
    previewEnabled: 1
  - name: fist
    enabled: 1
    influence: 1
    pose: 2
    value: 0
    action_single:
      actionPath: 
      needsReinit: 0
    action_bool:
      actionPath: /actions/default/in/GrabPinch
      needsReinit: 0
    smoothingSpeed: 16
    type: 2
    useMask: 0
    mask:
      palm: 1
      thumb: 1
      index: 1
      middle: 1
      ring: 1
      pinky: 1
      values: 010101010101
    previewEnabled: 1
  scale: 1
--- !u!1 &4108554346579133047
GameObject:
  m_ObjectHideFlags: 0
  m_CorrespondingSourceObject: {fileID: 0}
  m_PrefabInstance: {fileID: 0}
  m_PrefabAsset: {fileID: 0}
  serializedVersion: 6
  m_Component:
  - component: {fileID: 4108554346579133046}
  - component: {fileID: 4108554346579133045}
  - component: {fileID: 4108554346579132938}
  - component: {fileID: 4108554346579132936}
  - component: {fileID: 4108554346579132937}
  - component: {fileID: 5713049123027759538}
  - component: {fileID: 746650502716850165}
  m_Layer: 9
  m_Name: RightSelect
  m_TagString: Player
  m_Icon: {fileID: 0}
  m_NavMeshLayer: 0
  m_StaticEditorFlags: 0
  m_IsActive: 1
--- !u!4 &4108554346579133046
Transform:
  m_ObjectHideFlags: 0
  m_CorrespondingSourceObject: {fileID: 0}
  m_PrefabInstance: {fileID: 0}
  m_PrefabAsset: {fileID: 0}
  m_GameObject: {fileID: 4108554346579133047}
  m_LocalRotation: {x: 0, y: 0, z: 0, w: 1}
  m_LocalPosition: {x: 0, y: 0, z: 0}
  m_LocalScale: {x: 1, y: 1, z: 1}
  m_Children:
  - {fileID: 2921379330360099790}
  m_Father: {fileID: 0}
  m_RootOrder: 0
  m_LocalEulerAnglesHint: {x: 0, y: 0, z: 0}
--- !u!65 &4108554346579133045
BoxCollider:
  m_ObjectHideFlags: 0
  m_CorrespondingSourceObject: {fileID: 0}
  m_PrefabInstance: {fileID: 0}
  m_PrefabAsset: {fileID: 0}
  m_GameObject: {fileID: 4108554346579133047}
  m_Material: {fileID: 0}
  m_IsTrigger: 1
  m_Enabled: 1
  serializedVersion: 2
  m_Size: {x: 0.060016714, y: 0.109657526, z: 0.20145553}
  m_Center: {x: 0, y: 0, z: -0.15}
--- !u!54 &4108554346579132938
Rigidbody:
  m_ObjectHideFlags: 0
  m_CorrespondingSourceObject: {fileID: 0}
  m_PrefabInstance: {fileID: 0}
  m_PrefabAsset: {fileID: 0}
  m_GameObject: {fileID: 4108554346579133047}
  serializedVersion: 2
  m_Mass: 1
  m_Drag: 0
  m_AngularDrag: 0.05
  m_UseGravity: 1
  m_IsKinematic: 1
  m_Interpolate: 0
  m_Constraints: 0
  m_CollisionDetection: 0
--- !u!114 &4108554346579132936
MonoBehaviour:
  m_ObjectHideFlags: 0
  m_CorrespondingSourceObject: {fileID: 0}
  m_PrefabInstance: {fileID: 0}
  m_PrefabAsset: {fileID: 0}
  m_GameObject: {fileID: 4108554346579133047}
  m_Enabled: 1
  m_EditorHideFlags: 0
  m_Script: {fileID: 11500000, guid: aa584fbee541324448dd18d8409c7a41, type: 3}
  m_Name: 
  m_EditorClassIdentifier: 
  ObservedComponentsFoldoutOpen: 1
  Group: 0
  prefixField: -1
  Synchronization: 3
  OwnershipTransfer: 0
  ObservedComponents:
  - {fileID: 4108554346579132937}
  viewIdField: 0
  InstantiationId: 2
  isRuntimeInstantiated: 0
--- !u!114 &4108554346579132937
MonoBehaviour:
  m_ObjectHideFlags: 0
  m_CorrespondingSourceObject: {fileID: 0}
  m_PrefabInstance: {fileID: 0}
  m_PrefabAsset: {fileID: 0}
  m_GameObject: {fileID: 4108554346579133047}
  m_Enabled: 1
  m_EditorHideFlags: 0
  m_Script: {fileID: 11500000, guid: 8efc6b1d64977384eb3405357896c656, type: 3}
  m_Name: 
  m_EditorClassIdentifier: 
  m_PositionModel:
    SynchronizeEnabled: 1
    TeleportEnabled: 1
    TeleportIfDistanceGreaterThan: 3
    InterpolateOption: 2
    InterpolateMoveTowardsSpeed: 1
    InterpolateLerpSpeed: 1
    ExtrapolateOption: 0
    ExtrapolateSpeed: 1
    ExtrapolateIncludingRoundTripTime: 1
    ExtrapolateNumberOfStoredPositions: 1
  m_RotationModel:
    SynchronizeEnabled: 1
    InterpolateOption: 1
    InterpolateRotateTowardsSpeed: 180
    InterpolateLerpSpeed: 5
  m_ScaleModel:
    SynchronizeEnabled: 0
    InterpolateOption: 0
    InterpolateMoveTowardsSpeed: 1
    InterpolateLerpSpeed: 0
--- !u!114 &5713049123027759538
MonoBehaviour:
  m_ObjectHideFlags: 0
  m_CorrespondingSourceObject: {fileID: 0}
  m_PrefabInstance: {fileID: 0}
  m_PrefabAsset: {fileID: 0}
  m_GameObject: {fileID: 4108554346579133047}
  m_Enabled: 1
  m_EditorHideFlags: 0
  m_Script: {fileID: 11500000, guid: f105371d1afa08542a43963f8caef571, type: 3}
  m_Name: 
  m_EditorClassIdentifier: 
  removeBehaviours:
  - {fileID: 0}
--- !u!114 &746650502716850165
MonoBehaviour:
  m_ObjectHideFlags: 0
  m_CorrespondingSourceObject: {fileID: 0}
  m_PrefabInstance: {fileID: 0}
  m_PrefabAsset: {fileID: 0}
  m_GameObject: {fileID: 4108554346579133047}
  m_Enabled: 1
  m_EditorHideFlags: 0
  m_Script: {fileID: 11500000, guid: 2a95e4c930a8fe947a3a56bdbd778584, type: 3}
  m_Name: 
  m_EditorClassIdentifier: 
  punchingForce: 2
--- !u!1001 &2919712413738656650
PrefabInstance:
  m_ObjectHideFlags: 0
  serializedVersion: 2
  m_Modification:
    m_TransformParent: {fileID: 4108554346579133046}
    m_Modifications:
    - target: {fileID: 1000010184414672, guid: 5dc81ef5cae96304586abbc6e4b5beb8, type: 3}
      propertyPath: m_Name
      value: vr_glove_right
      objectReference: {fileID: 0}
    - target: {fileID: 1000010184414672, guid: 5dc81ef5cae96304586abbc6e4b5beb8, type: 3}
      propertyPath: m_Layer
      value: 9
      objectReference: {fileID: 0}
    - target: {fileID: 1000010184414672, guid: 5dc81ef5cae96304586abbc6e4b5beb8, type: 3}
      propertyPath: m_TagString
      value: Player
      objectReference: {fileID: 0}
    - target: {fileID: 1000010394603002, guid: 5dc81ef5cae96304586abbc6e4b5beb8, type: 3}
      propertyPath: m_Layer
      value: 9
      objectReference: {fileID: 0}
    - target: {fileID: 1000010500634710, guid: 5dc81ef5cae96304586abbc6e4b5beb8, type: 3}
      propertyPath: m_Layer
      value: 9
      objectReference: {fileID: 0}
    - target: {fileID: 1000010511528752, guid: 5dc81ef5cae96304586abbc6e4b5beb8, type: 3}
      propertyPath: m_Layer
      value: 9
      objectReference: {fileID: 0}
    - target: {fileID: 1000011093090538, guid: 5dc81ef5cae96304586abbc6e4b5beb8, type: 3}
      propertyPath: m_Layer
      value: 9
      objectReference: {fileID: 0}
    - target: {fileID: 1000011140077010, guid: 5dc81ef5cae96304586abbc6e4b5beb8, type: 3}
      propertyPath: m_Layer
      value: 9
      objectReference: {fileID: 0}
    - target: {fileID: 1000011352355576, guid: 5dc81ef5cae96304586abbc6e4b5beb8, type: 3}
      propertyPath: m_Layer
      value: 9
      objectReference: {fileID: 0}
    - target: {fileID: 1000011364077570, guid: 5dc81ef5cae96304586abbc6e4b5beb8, type: 3}
      propertyPath: m_IsActive
      value: 1
      objectReference: {fileID: 0}
    - target: {fileID: 1000011418661950, guid: 5dc81ef5cae96304586abbc6e4b5beb8, type: 3}
      propertyPath: m_Layer
      value: 9
      objectReference: {fileID: 0}
    - target: {fileID: 1000011501617704, guid: 5dc81ef5cae96304586abbc6e4b5beb8, type: 3}
      propertyPath: m_Layer
      value: 9
      objectReference: {fileID: 0}
    - target: {fileID: 1000011508897038, guid: 5dc81ef5cae96304586abbc6e4b5beb8, type: 3}
      propertyPath: m_Layer
      value: 9
      objectReference: {fileID: 0}
    - target: {fileID: 1000011619497952, guid: 5dc81ef5cae96304586abbc6e4b5beb8, type: 3}
      propertyPath: m_Layer
      value: 9
      objectReference: {fileID: 0}
    - target: {fileID: 1000011658963394, guid: 5dc81ef5cae96304586abbc6e4b5beb8, type: 3}
      propertyPath: m_Layer
      value: 9
      objectReference: {fileID: 0}
    - target: {fileID: 1000011962524656, guid: 5dc81ef5cae96304586abbc6e4b5beb8, type: 3}
      propertyPath: m_Layer
      value: 9
      objectReference: {fileID: 0}
    - target: {fileID: 1000012084568316, guid: 5dc81ef5cae96304586abbc6e4b5beb8, type: 3}
      propertyPath: m_Layer
      value: 9
      objectReference: {fileID: 0}
    - target: {fileID: 1000012257691900, guid: 5dc81ef5cae96304586abbc6e4b5beb8, type: 3}
      propertyPath: m_Layer
      value: 9
      objectReference: {fileID: 0}
    - target: {fileID: 1000012430023084, guid: 5dc81ef5cae96304586abbc6e4b5beb8, type: 3}
      propertyPath: m_Layer
      value: 9
      objectReference: {fileID: 0}
    - target: {fileID: 1000012586765742, guid: 5dc81ef5cae96304586abbc6e4b5beb8, type: 3}
      propertyPath: m_Layer
      value: 9
      objectReference: {fileID: 0}
    - target: {fileID: 1000012703779442, guid: 5dc81ef5cae96304586abbc6e4b5beb8, type: 3}
      propertyPath: m_Layer
      value: 9
      objectReference: {fileID: 0}
    - target: {fileID: 1000012754755106, guid: 5dc81ef5cae96304586abbc6e4b5beb8, type: 3}
      propertyPath: m_Layer
      value: 9
      objectReference: {fileID: 0}
    - target: {fileID: 1000012994108518, guid: 5dc81ef5cae96304586abbc6e4b5beb8, type: 3}
      propertyPath: m_Layer
      value: 9
      objectReference: {fileID: 0}
    - target: {fileID: 1000013089436196, guid: 5dc81ef5cae96304586abbc6e4b5beb8, type: 3}
      propertyPath: m_Layer
      value: 9
      objectReference: {fileID: 0}
    - target: {fileID: 1000013089436196, guid: 5dc81ef5cae96304586abbc6e4b5beb8, type: 3}
      propertyPath: m_Name
      value: m_root
      objectReference: {fileID: 0}
    - target: {fileID: 1000013095006114, guid: 5dc81ef5cae96304586abbc6e4b5beb8, type: 3}
      propertyPath: m_Layer
      value: 9
      objectReference: {fileID: 0}
    - target: {fileID: 1000013195044528, guid: 5dc81ef5cae96304586abbc6e4b5beb8, type: 3}
      propertyPath: m_Layer
      value: 9
      objectReference: {fileID: 0}
    - target: {fileID: 1000013529513138, guid: 5dc81ef5cae96304586abbc6e4b5beb8, type: 3}
      propertyPath: m_Layer
      value: 9
      objectReference: {fileID: 0}
    - target: {fileID: 1000013622036354, guid: 5dc81ef5cae96304586abbc6e4b5beb8, type: 3}
      propertyPath: m_Layer
      value: 9
      objectReference: {fileID: 0}
    - target: {fileID: 1000013692278138, guid: 5dc81ef5cae96304586abbc6e4b5beb8, type: 3}
      propertyPath: m_Layer
      value: 9
      objectReference: {fileID: 0}
    - target: {fileID: 1000013743352532, guid: 5dc81ef5cae96304586abbc6e4b5beb8, type: 3}
      propertyPath: m_Layer
      value: 9
      objectReference: {fileID: 0}
    - target: {fileID: 1000013831639506, guid: 5dc81ef5cae96304586abbc6e4b5beb8, type: 3}
      propertyPath: m_Layer
      value: 9
      objectReference: {fileID: 0}
    - target: {fileID: 1000013867597150, guid: 5dc81ef5cae96304586abbc6e4b5beb8, type: 3}
      propertyPath: m_Layer
      value: 9
      objectReference: {fileID: 0}
    - target: {fileID: 1000013883827546, guid: 5dc81ef5cae96304586abbc6e4b5beb8, type: 3}
      propertyPath: m_Layer
      value: 9
      objectReference: {fileID: 0}
    - target: {fileID: 1000014247894228, guid: 5dc81ef5cae96304586abbc6e4b5beb8, type: 3}
      propertyPath: m_Layer
      value: 9
      objectReference: {fileID: 0}
    - target: {fileID: 1000014250029776, guid: 5dc81ef5cae96304586abbc6e4b5beb8, type: 3}
      propertyPath: m_Layer
      value: 9
      objectReference: {fileID: 0}
    - target: {fileID: 1000014258166540, guid: 5dc81ef5cae96304586abbc6e4b5beb8, type: 3}
      propertyPath: m_Layer
      value: 9
      objectReference: {fileID: 0}
    - target: {fileID: 1000014281583116, guid: 5dc81ef5cae96304586abbc6e4b5beb8, type: 3}
      propertyPath: m_Layer
      value: 9
      objectReference: {fileID: 0}
    - target: {fileID: 4000011683143748, guid: 5dc81ef5cae96304586abbc6e4b5beb8, type: 3}
      propertyPath: m_LocalPosition.x
      value: 0
      objectReference: {fileID: 0}
    - target: {fileID: 4000011683143748, guid: 5dc81ef5cae96304586abbc6e4b5beb8, type: 3}
      propertyPath: m_LocalPosition.y
      value: 0
      objectReference: {fileID: 0}
    - target: {fileID: 4000011683143748, guid: 5dc81ef5cae96304586abbc6e4b5beb8, type: 3}
      propertyPath: m_LocalPosition.z
      value: 0
      objectReference: {fileID: 0}
    - target: {fileID: 4000011683143748, guid: 5dc81ef5cae96304586abbc6e4b5beb8, type: 3}
      propertyPath: m_LocalRotation.x
      value: 0
      objectReference: {fileID: 0}
    - target: {fileID: 4000011683143748, guid: 5dc81ef5cae96304586abbc6e4b5beb8, type: 3}
      propertyPath: m_LocalRotation.y
      value: 0
      objectReference: {fileID: 0}
    - target: {fileID: 4000011683143748, guid: 5dc81ef5cae96304586abbc6e4b5beb8, type: 3}
      propertyPath: m_LocalRotation.z
      value: 0
      objectReference: {fileID: 0}
    - target: {fileID: 4000011683143748, guid: 5dc81ef5cae96304586abbc6e4b5beb8, type: 3}
      propertyPath: m_LocalRotation.w
      value: 1
      objectReference: {fileID: 0}
    - target: {fileID: 4000011683143748, guid: 5dc81ef5cae96304586abbc6e4b5beb8, type: 3}
      propertyPath: m_RootOrder
      value: 0
      objectReference: {fileID: 0}
    - target: {fileID: 4000011683143748, guid: 5dc81ef5cae96304586abbc6e4b5beb8, type: 3}
      propertyPath: m_LocalEulerAnglesHint.x
      value: 0
      objectReference: {fileID: 0}
    - target: {fileID: 4000011683143748, guid: 5dc81ef5cae96304586abbc6e4b5beb8, type: 3}
      propertyPath: m_LocalEulerAnglesHint.y
      value: 0
      objectReference: {fileID: 0}
    - target: {fileID: 4000011683143748, guid: 5dc81ef5cae96304586abbc6e4b5beb8, type: 3}
      propertyPath: m_LocalEulerAnglesHint.z
      value: 0
      objectReference: {fileID: 0}
    - target: {fileID: 114000011652895316, guid: 5dc81ef5cae96304586abbc6e4b5beb8,
        type: 3}
      propertyPath: updatePose
      value: 0
      objectReference: {fileID: 0}
    - target: {fileID: 114000011652895316, guid: 5dc81ef5cae96304586abbc6e4b5beb8,
        type: 3}
      propertyPath: rangeOfMotion
      value: 1
      objectReference: {fileID: 0}
    - target: {fileID: 137000011787564676, guid: 5dc81ef5cae96304586abbc6e4b5beb8,
        type: 3}
      propertyPath: m_Materials.Array.data[0]
      value: 
      objectReference: {fileID: 2100000, guid: 492f4a34f2321a94e87d83be2b5cbea5, type: 2}
    m_RemovedComponents:
    - {fileID: 114000011652895316, guid: 5dc81ef5cae96304586abbc6e4b5beb8, type: 3}
    - {fileID: 114000014167701796, guid: 5dc81ef5cae96304586abbc6e4b5beb8, type: 3}
  m_SourcePrefab: {fileID: 100100000, guid: 5dc81ef5cae96304586abbc6e4b5beb8, type: 3}
--- !u!1 &2920421053238916698 stripped
GameObject:
  m_CorrespondingSourceObject: {fileID: 1000010184414672, guid: 5dc81ef5cae96304586abbc6e4b5beb8,
    type: 3}
  m_PrefabInstance: {fileID: 2919712413738656650}
  m_PrefabAsset: {fileID: 0}
--- !u!4 &2921379330360099790 stripped
Transform:
  m_CorrespondingSourceObject: {fileID: 4000011683143748, guid: 5dc81ef5cae96304586abbc6e4b5beb8,
    type: 3}
  m_PrefabInstance: {fileID: 2919712413738656650}
  m_PrefabAsset: {fileID: 0}
--- !u!4 &2921379330243903032 stripped
Transform:
  m_CorrespondingSourceObject: {fileID: 4000011531312562, guid: 5dc81ef5cae96304586abbc6e4b5beb8,
    type: 3}
  m_PrefabInstance: {fileID: 2919712413738656650}
  m_PrefabAsset: {fileID: 0}
--- !u!1 &2920421054450004872 stripped
GameObject:
  m_CorrespondingSourceObject: {fileID: 1000011364077570, guid: 5dc81ef5cae96304586abbc6e4b5beb8,
    type: 3}
  m_PrefabInstance: {fileID: 2919712413738656650}
  m_PrefabAsset: {fileID: 0}
